<?xml version="1.0" encoding="UTF-8"?>
<svg width="45px" height="52px" viewBox="0 0 45 52" version="1.1" xmlns="http://www.w3.org/2000/svg" xmlns:xlink="http://www.w3.org/1999/xlink">
    <!-- Generator: Sketch 41 (35326) - http://www.bohemiancoding.com/sketch -->
    <title>list-of-contracts</title>
    <desc>Created with Sketch.</desc>
    <defs>
        <linearGradient x1="0%" y1="100%" x2="100%" y2="0%" id="linearGradient-1">
            <stop stop-color="#E43959" offset="0%"></stop>
            <stop stop-color="#FDB582" offset="100%"></stop>
        </linearGradient>
    </defs>
    <g id="Page-1" stroke="none" stroke-width="1" fill="none" fill-rule="evenodd">
        <g id="Desktop-HD" transform="translate(-709.000000, -666.000000)" fill="url(#linearGradient-1)">
            <g id="list-of-contracts" transform="translate(709.000000, 666.000000)">
                <g id="Group">
                    <path d="M38.0930233,37.232 C37.4651163,37.232 37.0465116,36.816 37.0465116,36.192 C37.0465116,33.8 36.5232558,32.552 36.3139535,32.344 C35.4767442,32.136 32.8604651,31.512 31.7093023,31.2 L29.0930233,34.008 C28.8837209,34.216 28.5697674,34.32 28.3604651,34.32 L28.3604651,34.32 C28.0465116,34.32 27.8372093,34.216 27.627907,34.008 L24.9069767,31.2 C23.755814,31.512 21.244186,32.136 20.3023256,32.344 C20.1976744,32.448 19.6744186,33.384 19.6744186,36.088 C19.6744186,36.712 19.255814,37.128 18.627907,37.128 C18,37.128 17.5813953,36.712 17.5813953,36.088 C17.5813953,32.552 18.3139535,30.68 19.7790698,30.264 C20.9302326,29.952 25.0116279,28.912 25.0116279,28.912 C25.4302326,28.808 25.744186,28.912 26.0581395,29.224 L28.3604651,31.616 L30.5581395,29.224 C30.6627907,29.12 30.6627907,29.12 30.7674419,29.016 C30.9767442,28.808 31.3953488,28.704 31.7093023,28.808 C31.7093023,28.808 35.7906977,29.848 36.9418605,30.16 C38.9302326,30.68 39.244186,34.008 39.244186,35.984 C39.1395349,36.712 38.7209302,37.232 38.0930233,37.232 Z" id="Shape"></path>
                    <path d="M28.5697674,28.6 C26.8953488,28.6 25.8488372,27.56 25.0116279,26.52 C24.0697674,25.272 22.9186047,22.048 23.2325581,19.552 C23.4418605,17.992 24.3837209,15.392 28.3604651,15.392 C30.4534884,15.392 32.8604651,16.328 33.4883721,19.136 C34.0116279,21.528 32.9651163,24.96 32.0232558,26.416 C31.0813953,27.768 30.1395349,28.6 28.5697674,28.6 Z M28.3604651,17.472 C26.4767442,17.472 25.5348837,18.2 25.3255814,19.864 C25.1162791,21.84 26.0581395,24.544 26.6860465,25.272 C27.5232558,26.312 28.0465116,26.52 28.5697674,26.52 C28.9883721,26.52 29.4069767,26.416 30.3488372,25.168 C31.0813953,24.128 31.9186047,21.32 31.5,19.552 C31.0813953,17.68 29.1976744,17.472 28.3604651,17.472 Z" id="Shape"></path>
                    <path d="M12.5581395,49.92 L8.37209302,49.92 C6.59302326,49.92 5.23255814,48.568 5.23255814,46.8 L5.23255814,42.64 C5.23255814,42.016 4.81395349,41.6 4.18604651,41.6 C3.55813953,41.6 3.13953488,42.016 3.13953488,42.64 L3.13953488,46.8 C3.13953488,49.712 5.44186047,52 8.37209302,52 L39.7674419,52 C42.6976744,52 45,49.712 45,46.8 L45,5.2 C45,2.288 42.6976744,0 39.7674419,0 L8.37209302,0 C5.44186047,0 3.13953488,2.288 3.13953488,5.2 L3.13953488,10.4 C3.13953488,11.024 3.55813953,11.44 4.18604651,11.44 C4.81395349,11.44 5.23255814,11.024 5.23255814,10.4 L5.23255814,5.2 C5.23255814,3.432 6.59302326,2.08 8.37209302,2.08 L12.5581395,2.08 L12.5581395,49.92 Z M14.6511628,49.92 L39.7674419,49.92 C41.5465116,49.92 42.9069767,48.568 42.9069767,46.8 L42.9069767,5.2 C42.9069767,3.432 41.5465116,2.08 39.7674419,2.08 L14.6511628,2.08 L14.6511628,49.92 Z M6.27906977,14.56 L1.04651163,14.56 C0.418604651,14.56 0,14.144 0,13.52 C0,12.896 0.418604651,12.48 1.04651163,12.48 L6.27906977,12.48 C6.90697674,12.48 7.3255814,12.896 7.3255814,13.52 C7.3255814,14.144 6.90697674,14.56 6.27906977,14.56 Z M6.27906977,39.52 L1.04651163,39.52 C0.418604651,39.52 0,39.104 0,38.48 C0,37.856 0.418604651,37.44 1.04651163,37.44 L6.27906977,37.44 C6.90697674,37.44 7.3255814,37.856 7.3255814,38.48 C7.3255814,39.104 6.90697674,39.52 6.27906977,39.52 Z M6.27906977,27.04 L1.04651163,27.04 C0.418604651,27.04 0,26.624 0,26 C0,25.376 0.418604651,24.96 1.04651163,24.96 L6.27906977,24.96 C6.90697674,24.96 7.3255814,25.376 7.3255814,26 C7.3255814,26.624 6.90697674,27.04 6.27906977,27.04 Z M4.18604651,36.4 C3.55813953,36.4 3.13953488,35.984 3.13953488,35.36 L3.13953488,29.12 C3.13953488,28.496 3.55813953,28.08 4.18604651,28.08 C4.81395349,28.08 5.23255814,28.496 5.23255814,29.12 L5.23255814,35.36 C5.23255814,35.984 4.81395349,36.4 4.18604651,36.4 Z M4.18604651,23.92 C3.55813953,23.92 3.13953488,23.504 3.13953488,22.88 L3.13953488,16.64 C3.13953488,16.016 3.55813953,15.6 4.18604651,15.6 C4.81395349,15.6 5.23255814,16.016 5.23255814,16.64 L5.23255814,22.88 C5.23255814,23.504 4.81395349,23.92 4.18604651,23.92 Z" id="Combined-Shape"></path>
                </g>
            </g>
        </g>
    </g>
</svg>